Scene Data Exploration
…
Member Entry Sequence (scene_mbr_seq_num)

This variable is not properly defined in the metadata. From the dataset, it appears that this number represents a unique entry for each customer and is used for customer record history. Whenever a member is entered in a database, s/he is assigned scene_mbr_seq_num as 1. At the next change, this variable is changed to 2 and so on. Thus, 1 represents the first entry for the customer.

summary(scene_mbr_dim$scene_mbr_seq_num)

##    Min. 1st Qu.  Median    Mean 3rd Qu.    Max. 
##   1.000   1.000   1.000   1.812   2.000 202.000

group_by(scene_mbr_dim, scene_mbr_seq_num)%>%
  summarise(count=n(), percentage = n()/nrow(scene_mbr_dim))%>%
  arrange(desc(count))

## # A tibble: 35 x 3
##    scene_mbr_seq_num  count   percentage
##                <int>  <int>        <dbl>
##  1                 1 170214 0.5033906576
##  2                 2 100174 0.2962544546
##  3                 3  43860 0.1297115058
##  4                 4  15413 0.0455823857
##  5                 5   5214 0.0154198767
##  6                 6   2052 0.0060685821
##  7                 7    716 0.0021174974
##  8                 8    251 0.0007423071
##  9                 9     96 0.0002839103
## 10                10     49 0.0001449125
## # ... with 25 more rows
…
EndDateTbl <- scene_mbr_dim %>%
group_by(scene_mbr_acct_key) %>%
  summarise(EndDate=max(eff_to_tmstamp))

scene_mbr_dim %>%
group_by(scene_mbr_acct_key) %>%
  summarise(EndDate=max(eff_to_tmstamp)) %>%
  filter(EndDate>ymd(20160101))

## # A tibble: 34,976 x 2
##    scene_mbr_acct_key             EndDate
##                 <int>              <dttm>
##  1                 12 2016-08-03 02:12:50
##  2                 62 2016-08-19 00:41:51
##  3                755 2016-08-19 00:41:52
##  4                980 2016-08-19 00:41:51
##  5               1092 2016-02-26 23:20:06
##  6               1260 2016-08-23 23:46:20
##  7               1314 2016-08-19 00:41:51
##  8               1916 2016-02-08 23:01:05
##  9               2079 2016-08-19 00:41:52
## 10               2159 2016-06-06 16:30:13
## # ... with 34,966 more rows
…
The distribution of birth years is positively skewed with peak around 1990.

Postal Code (psnl_post_cd)

The postal code of the address. First 3 characters only.

group_by(scene_mbr_dim, scene_mbr_acct_key, psnl_post_cd)%>%
  summarise(count=n())%>%
  group_by(psnl_post_cd)%>%
  summarise(count1=n())%>%
  arrange(desc(count1))

## # A tibble: 1,931 x 2
##    psnl_post_cd count1
##           <chr>  <int>
##  1          L4N   1565
##  2          L5M   1502
##  3          M1B   1477
##  4          L6R   1332
##  5          L9T   1293
##  6          M2N   1285
##  7          K0K   1240
##  8          L6Y   1238
##  9          L5N   1181
## 10          V3S   1163
## # ... with 1,921 more rows
…
length(unique(scene_mbr_dim$psnl_city))

## [1] 842

There are 842 unique cities represented in this sample.

Number of customers per city:

scene_mbr_dim %>%
  group_by(psnl_city) %>%
  summarise(count= n(), percentage = n() / nrow(scene_mbr_dim)) %>%
  arrange(desc(count))

## # A tibble: 842 x 3
##      psnl_city count percentage
##          <chr> <int>      <dbl>
##  1     toronto 30832 0.09118252
##  2     calgary 14914 0.04410664
##  3 scarborough 11507 0.03403079
##  4    edmonton 11372 0.03363154
##  5 mississauga 10716 0.03169148
##  6    montreal  9917 0.02932852
##  7    winnipeg  8901 0.02632381
##  8    brampton  8900 0.02632085
##  9   vancouver  8571 0.02534786
## 10      ottawa  8519 0.02519408
## # ... with 832 more rows
…
55% of the members in the dataset are females. The ratio of female members are slightly higher than male members in most of Canadian Provinces. Yonger member base tend to have more male representation than do older members.

Preferred Location

group_by(scene_mbr_dim, prefrd_loctn_desc)%>%
  summarise(count=n_distinct(scene_mbr_key),percentage = n_distinct(scene_mbr_key) / n_distinct(scene_mbr_dim$scene_mbr_key))%>%
  arrange(desc(count))

## # A tibble: 156 x 3
##                                          prefrd_loctn_desc  count
##                                                      <chr>  <int>
##  1                                                 Unknown 190152
##  2                                         Coliseum Ottawa   2963
##  3                              Scotiabank Theatre Chinook   2944
##  4                                     SilverCity Yorkdale   2786
##  5 Scotiabank Theatre Toronto (formerly Paramount Toronto)   2745
##  6                                    Coliseum Mississauga   2647
##  7                                    SilverCity Polo Park   2553
##  8                                       SilverCity London   2468
##  9                           Cineplex Odeon South Edmonton   2461
## 10                                   SilverCity Metropolis   2298
## # ... with 146 more rows, and 1 more variables: percentage <dbl>

scene_mbr_dim%>%
  filter(prefrd_loctn_desc!='Unknown')%>%
  group_by(psnl_city, prefrd_loctn_desc)%>%
  summarise(count=n_distinct(scene_mbr_acct_key))%>%
  arrange(desc(count))  

## Source: local data frame [6,801 x 3]
## Groups: psnl_city [701]
## 
## # A tibble: 6,801 x 3
##      psnl_city                                       prefrd_loctn_desc
##          <chr>                                                   <chr>
##  1     calgary                              Scotiabank Theatre Chinook
##  2     toronto                                     SilverCity Yorkdale
##  3 mississauga                                    Coliseum Mississauga
##  4     toronto Scotiabank Theatre Toronto (formerly Paramount Toronto)
##  5    winnipeg                                    SilverCity Polo Park
##  6    edmonton                           Cineplex Odeon South Edmonton
##  7    brampton                                     SilverCity Brampton
##  8   saskatoon                                Galaxy Cinemas Saskatoon
##  9     calgary                        Cineplex Odeon Sunridge Spectrum
## 10      london                                       SilverCity London
## # ... with 6,791 more rows, and 1 more variables: count <int>
…
In this sample dataset, 5,489 (98%) enrolled and 84(2%) unerolled.

cncl_dt

Cancel date. 98% of the field is null.

scene_mbr_acct_dim$cncl_dt <- ymd_hms(scene_mbr_acct_dim$cncl_dt)

group_by(scene_mbr_acct_dim, cncl_dt)%>%
  summarise(count=n(),percentage = n()/nrow(scene_mbr_acct_dim))%>%
  arrange(desc(count))

## # A tibble: 4,796 x 3
##                cncl_dt  count   percentage
##                 <dttm>  <int>        <dbl>
##  1                  NA 325061 9.844009e-01
##  2 2007-12-17 15:14:15    229 6.934939e-04
##  3 2007-12-17 20:40:17     31 9.387908e-05
##  4 2012-10-25 15:18:26      7 2.119850e-05
##  5 2014-02-19 15:34:41      7 2.119850e-05
##  6 2012-10-25 15:18:27      6 1.817015e-05
##  7 2012-10-25 15:18:32      5 1.514179e-05
##  8 2012-10-25 15:18:35      5 1.514179e-05
##  9 2014-01-23 16:27:07      5 1.514179e-05
## 10 2014-01-23 16:26:59      4 1.211343e-05
## # ... with 4,786 more rows
…
The number of enrollment seems to have significantly dropped since 2014, which seem unintuitive. A possibility that could exlain what we see here is the time lag between when an account is enrolled vs.when the data enters into the database we are using. See next point below.

acct_eff_from_tmstamp

Date from which that specific record became effective.

group_by(scene_mbr_acct_dim, as.Date(acct_eff_from_tmstamp))%>%
  summarise(count=n(),percentage = n()/nrow(scene_mbr_acct_dim))%>%
  arrange(desc(count))

## # A tibble: 1,704 x 3
##    `as.Date(acct_eff_from_tmstamp)`  count  percentage
##                              <date>  <int>       <dbl>
##  1                       2010-03-03 132313 0.400691071
##  2                       2014-11-26   1121 0.003394789
##  3                       2011-09-20   1026 0.003107095
##  4                       2016-06-06   1004 0.003040471
##  5                       2011-12-19    731 0.002213729
##  6                       2013-01-31    724 0.002192531
##  7                       2011-07-20    657 0.001989631
##  8                       2010-03-08    602 0.001823071
##  9                       2012-09-07    602 0.001823071
## 10                       2011-12-17    564 0.001707994
## # ... with 1,694 more rows
…
